Introduction to Machine Learning - 1 Supervised Learning
…
This shows the type of response, an error rate estimate on the training set, kernel ( distance-weighting function used in the class vote), and choice of \(k\) (misleadingly listed as “Best k”). The kernel is actually another hyperparameter for this model, but parsnip selects a reasonable kernel by default. You can find the hyperparameters and their default values for a model on the model function’s help page. In this case, that’s ?nearest_neighbor.

Once you’ve trained a model, you can use it with the predict function to make predictions. The predict function takes the fitted model and a data set with the same columns (excluding the response) as the training set as arguments. The function returns the predictions in a 1-column data frame.

To try out predict, let’s calculate the error on the training set manually. First, predict the class for each observation in the training set:

preds = predict(fitted, peng)

preds

# A tibble: 333 × 1
   .pred_class
   <fct>      
 1 Adelie     
 2 Adelie     
 3 Adelie     
 4 Adelie     
 5 Adelie     
 6 Adelie     
 7 Adelie     
 8 Adelie     
 9 Adelie     
10 Adelie     
# ℹ 323 more rows
…
